{
  "data": [
    {
      "_id": "57550d11d76bf95c669ceb65",
      "authorKey": "wendly",
      "title": "Glimpses of the fourth cycle",
      "publish": true,
      "summary": "Christianity had many many turning point during the fourth century. Like a roller coaster, the church's history during the fourth century was marked by opposing events. With its up and down, the fourth century remain as a pivotal moment in the church history.",
      "id": "PJ46xX9zwF",
      "created": "2016-06-06T05:41:37+00:00",
      "updated": "Fri Jun 17 2016 04:14:02 GMT+0000"
    },
    {
      "_id": "574a66ca856981bd08bde440",
      "authorKey": "wendly",
      "title": "Eusebius: Scripture Conflict",
      "publish": true,
      "summary": "In the fourth century, one called Eusebius, lead a fight that impacted future generations. By his cleverness and reputation, he molded the Gospel and fabricated scriptures to facilitate the expansion of universal apostasies",
      "updated": "Fri Jun 17 2016 04:14:02 GMT+0000",
      "id": "VNxaItPMHe",
      "created": "2016-05-29T03:49:29+00:00"
    },
    {
      "_id": "573be56f20202b8b1d2cd806",
      "title": "Isms in the Early Roman Church",
      "authorKey": "wendly",
      "summary": "Instead of clinging the bible as the compass for the Christian movement, many believers reduce the Gospel to human traditions. Many conflicting views arose around the fourth century included: Arianism, Asceticism, Donatism, Eutychianism, Monarchianism, Nestorianism, Pelagianism, Platonism, Sabellianism. Let take a look at those isms.",
      "publish": true,
      "id": "uPvpVr29sS",
      "created": "2016-05-20T02:57:35+00:00",
      "updated": "Fri Jun 17 2016 04:14:02 GMT+0000"
    },
    {
      "_id": "572ffc3420202b8b1d2cd7d0",
      "title": "40 martyrs of Sebaste",
      "authorKey": "wendly",
      "summary": "Even in the midst of increased paganism in the Christian church of the fourth century, a faithful forty refused to sacrifice to idols. They kept their convictions until death. All are not called to martyrdom; however, we all need the courage to stand firm in times of trials.",
      "publish": true,
      "id": "w7meEcrH8P",
      "created": "2016-05-17T04:37:59+00:00",
      "updated": "Fri Jun 17 2016 04:14:02 GMT+0000"
    },
    {
      "_id": "5726542720202b8b1d2cd7a7",
      "title": "Seven Ecumenical Councils",
      "authorKey": "wendly",
      "summary": "The ecumenical councils failed to accomplish their goals. Instead of uniting the church, they mostly introduced apostasy that weakened the Gospel. The councils further split the visible church. By 451, many of orthodox church from Asia and North Africa abandoned the apostasy of the so-called Holy Roman Empire, to find refuge and inspiration from the word of God. Those churches correctly reviewed the councils as bureaucratic exercises. ",
      "publish": true,
      "id": "yS5GH4IiJM",
      "created": "2016-05-01T19:08:23+00:00",
      "updated": "Fri Jun 17 2016 04:14:02 GMT+0000"
    },
    {
      "_id": "5719948920202b8b1d2cd712",
      "title": "Constantine",
      "authorKey": "wendly",
      "summary": "\nHistory records the acts of no other civil ruler who has wrought so great changes in the church as did Constantine. He gave a new form of government to the church, having for his model the government of the empire. He created offices in the church unknown to the New Testament, and he corrupted the doctrines and practices of the church. ",
      "publish": true,
      "id": "PlcMj6uIHt",
      "created": "2016-04-22T17:03:32+00:00",
      "updated": "Fri Jun 17 2016 04:14:02 GMT+0000"
    },
    {
      "_id": "5719b32d20202b8b1d2cd714",
      "title": "Edict of Milan",
      "authorKey": "wendly",
      "summary": "The ‘Edict of Milan’ survived for nine years. Its promises failed to prevail in the following centuries. This legal measure allowed any to organize churches and assemble whenever possible. By the time Europe was fully indoctrinated by Romish dogmas. The principle of ‘cuius regio eius religio’  survived. The religion of the prince really did become the religion of the populace.",
      "publish": true,
      "id": "vmFAeu7NF9",
      "created": "2016-04-22T05:18:44+00:00",
      "updated": "Fri Jun 17 2016 04:14:02 GMT+0000"
    },
    {
      "_id": "5707372b7e260e6130a63dfe",
      "title": "Diocletian",
      "authorKey": "wendly",
      "summary": "Diocletian, the reformer of Rome, was born in a regular family. Diocletian’s aptitude and intuition in planning military attacks helped to quickly earn the respect of renowned general. He increased in military ranks very fast. He was a very egocentric emperor. His legacy of persecution continued 2 years after his death. An ambitious emperor, his reform affected Rome financially.",
      "publish": true,
      "id": "st7D1zkipo",
      "created": "2016-04-22T02:31:50+00:00",
      "updated": "Fri Jun 17 2016 04:14:02 GMT+0000"
    },
    {
      "_id": "5705c4f57e260e6130a63dfc",
      "title": "Accusation Against the Early Christians",
      "authorKey": "wendly",
      "summary": "To many, the Gospel constituted of the very life they seek. In Jesus, they found a rest and peace that surpasses anything their world can offer. Many forsake the teaching of the Pharisee. Others left their idol worships. Some surrendered the cherished ideologies to cling unto the everlasting Gospel.",
      "publish": true,
      "id": "OOt6jgK4f1",
      "created": "2016-04-07T02:24:53+00:00",
      "updated": "Fri Jun 17 2016 04:14:02 GMT+0000"
    },
    {
      "_id": "570340f87e260e6130a63d99",
      "title": "Polycarp",
      "authorKey": "wendly",
      "summary": " Polycarp labored in Smyrna as a bishop from the 90s until his death in 156 A.D. A preacher of the Gospel, Polycarp is remembered by his enemies as the destroyer of the gods. Polycarp becomes very influential. His influential preaching inversely impacted the economy around the iconographic industry. His enemies set out to silence him.",
      "publish": true,
      "id": "0MfQBSBIer",
      "created": "2016-04-05T04:37:12+00:00",
      "updated": "Fri Jun 17 2016 04:14:02 GMT+0000"
    },
    {
      "_id": "56f9f08d7e260e6130a63d43",
      "title": "Justin Martyr",
      "authorKey": "wendly",
      "summary": "Justin is a philosopher and Christian apologist. He studied Platonic and Stoic philosophy. A true philosopher, Justin devoted his life to the radicalization of the Christian faith. After his baptism, Justin traveled Rome and expound on the Old testament in many public squares.",
      "publish": true,
      "id": "cf9CU7TtkK",
      "created": "2016-03-29T16:23:16+00:00",
      "updated": "Fri Jun 17 2016 04:14:02 GMT+0000"
    }
  ],
  "start": 1,
  "end": 11,
  "next": 2,
  "prev": false,
  "count": 18,
  "success": true
}
